[gd_scene load_steps=4 format=2]

[ext_resource path="res://scripts/Player.gd" type="Script" id=1]
[ext_resource path="res://icon.png" type="Texture" id=2]

[sub_resource type="RectangleShape2D" id=1]

[node name="Player" type="KinematicBody2D"]
script = ExtResource( 1 )

[node name="Sprite" type="Sprite" parent="."]
scale = Vector2( 0.3, 0.3 )
texture = ExtResource( 2 )

[node name="CollisionShape2D" type="CollisionShape2D" parent="."]
shape = SubResource( 1 )
